# 3ds Max Wavefront OBJ Exporter v0.97b - (c)2007 guruware
# File Created: 07.04.2020 18:57:03

mtllib board 1.mtl

#
# object board_1
#

v  -3.0682 -2.5225 -50.2945
v  -3.0682 3.0372 -49.4174
v  3.0682 3.0372 -49.4174
v  3.0682 -2.5225 -50.2945
v  -3.0682 -3.0372 49.4174
v  3.0682 -3.0372 49.4174
v  3.0682 2.5225 50.2945
v  -3.0682 2.5225 50.2945
# 8 vertices

vn -0.5699 -0.5322 -0.6261
vn -0.5858 0.6174 -0.5250
vn 0.5858 0.6174 -0.5250
vn 0.5699 -0.5322 -0.6261
vn -0.5858 -0.6174 0.5250
vn 0.5858 -0.6174 0.5250
vn 0.5699 0.5322 0.6261
vn -0.5699 0.5322 0.6261
# 8 vertex normals

vt 0.6211 0.9601 0.0000
vt 0.6211 0.9647 0.0000
vt 0.6165 0.9647 0.0000
vt 0.6165 0.9601 0.0000
vt 0.6265 0.9501 0.0000
vt 0.6311 0.9501 0.0000
vt 0.6311 0.9547 0.0000
vt 0.6265 0.9547 0.0000
vt 0.7772 0.3728 0.0000
vt 0.8187 0.3728 0.0000
vt 0.8187 0.4143 0.0000
vt 0.7772 0.4143 0.0000
vt 0.8458 0.3931 0.0000
vt 0.8871 0.3931 0.0000
vt 0.8871 0.4344 0.0000
vt 0.8458 0.4344 0.0000
vt 0.7633 0.4377 0.0000
vt 0.8048 0.4377 0.0000
vt 0.8048 0.4792 0.0000
vt 0.7633 0.4792 0.0000
vt 0.7540 0.5024 0.0000
vt 0.7954 0.5024 0.0000
vt 0.7954 0.5437 0.0000
vt 0.7540 0.5437 0.0000
# 24 texture coords

o board_1
g board_1
usemtl wire_008110135
s 2
f 1/1/1 2/2/2 3/3/3 4/4/4 
s 4
f 5/5/5 6/6/6 7/7/7 8/8/8 
s 8
f 1/9/1 4/10/4 6/11/6 5/12/5 
s 16
f 4/13/4 3/14/3 7/15/7 6/16/6 
s 32
f 3/17/3 2/18/2 8/19/8 7/20/7 
s 64
f 2/21/2 1/22/1 5/23/5 8/24/8 
# 6 polygons

