%YAML 1.1
%TAG !u! tag:unity3d.com,2011:
--- !u!21 &2100000
Material:
  serializedVersion: 6
  m_ObjectHideFlags: 0
  m_CorrespondingSourceObject: {fileID: 0}
  m_PrefabInstance: {fileID: 0}
  m_PrefabAsset: {fileID: 0}
  m_Name: Leafs Serrate Outline
  m_Shader: {fileID: 4800000, guid: 364ae1069b1778f43b5e632a66bdb48e, type: 3}
  m_ShaderKeywords: _ALPHATEST_ON _GLOSSYREFLECTIONS_OFF _LEAFTYPE_DEFAULT _NORMALMAP
    _SPECULARHIGHLIGHTS_OFF _WINDQUALITY_NONE
  m_LightmapFlags: 4
  m_EnableInstancingVariants: 1
  m_DoubleSidedGI: 0
  m_CustomRenderQueue: -1
  stringTagMap: {}
  disabledShaderPasses: []
  m_SavedProperties:
    serializedVersion: 3
    m_TexEnvs:
    - _Albedo:
        m_Texture: {fileID: 2800000, guid: 8b0017825887ee44e83ac0cb49ceadf0, type: 3}
        m_Scale: {x: 1, y: 1}
        m_Offset: {x: 0, y: 0}
    - _BumpMap:
        m_Texture: {fileID: 2800000, guid: bdcffb5968b084b4490b00efe97041e3, type: 3}
        m_Scale: {x: 1, y: 1}
        m_Offset: {x: 0, y: 0}
    - _DetailAlbedoMap:
        m_Texture: {fileID: 0}
        m_Scale: {x: 1, y: 1}
        m_Offset: {x: 0, y: 0}
    - _DetailMask:
        m_Texture: {fileID: 0}
        m_Scale: {x: 1, y: 1}
        m_Offset: {x: 0, y: 0}
    - _DetailNormalMap:
        m_Texture: {fileID: 0}
        m_Scale: {x: 1, y: 1}
        m_Offset: {x: 0, y: 0}
    - _EmissionMap:
        m_Texture: {fileID: 0}
        m_Scale: {x: 1, y: 1}
        m_Offset: {x: 0, y: 0}
    - _ExtraTex:
        m_Texture: {fileID: 0}
        m_Scale: {x: 1, y: 1}
        m_Offset: {x: 0, y: 0}
    - _MainTex:
        m_Texture: {fileID: 2800000, guid: 8b0017825887ee44e83ac0cb49ceadf0, type: 3}
        m_Scale: {x: 1, y: 1}
        m_Offset: {x: 0, y: 0}
    - _MetallicGlossMap:
        m_Texture: {fileID: 0}
        m_Scale: {x: 1, y: 1}
        m_Offset: {x: 0, y: 0}
    - _OcclusionMap:
        m_Texture: {fileID: 0}
        m_Scale: {x: 1, y: 1}
        m_Offset: {x: 0, y: 0}
    - _ParallaxMap:
        m_Texture: {fileID: 0}
        m_Scale: {x: 1, y: 1}
        m_Offset: {x: 0, y: 0}
    - _SpecGlossMap:
        m_Texture: {fileID: 0}
        m_Scale: {x: 1, y: 1}
        m_Offset: {x: 0, y: 0}
    - _SubsurfaceTex:
        m_Texture: {fileID: 0}
        m_Scale: {x: 1, y: 1}
        m_Offset: {x: 0, y: 0}
    - _ToonRamp:
        m_Texture: {fileID: 2800000, guid: 52e66a9243cdfed44b5e906f5910d35b, type: 3}
        m_Scale: {x: 1, y: 1}
        m_Offset: {x: 0, y: 0}
    - _texcoord:
        m_Texture: {fileID: 0}
        m_Scale: {x: 1, y: 1}
        m_Offset: {x: 0, y: 0}
    m_Floats:
    - GlobalWindInfluence: 1
    - _ASEOutlineWidth: 0
    - _AlphaCutoff: 0.5
    - _AlphaCutoffEnable: 0
    - _AlphaDstBlend: 0
    - _AlphaSrcBlend: 1
    - _Ao: 0.813
    - _BillboardKwToggle: 0
    - _BillboardShadowFade: 0.5
    - _BlendMode: 0
    - _BumpScale: 1
    - _BumpStrength: 1.5
    - _Clip: 0.4
    - _ColorVariation: 0.15
    - _CullMode: 0
    - _CullModeForward: 2
    - _CustomLightIntensity: 3
    - _Cutoff: 0.138
    - _Cutout: 0.159
    - _DetailNormalMapScale: 1
    - _Distortion: 1
    - _DoubleSidedEnable: 1
    - _DoubleSidedNormalMode: 2
    - _DstBlend: 0
    - _GlobalTurbulenceInfluence: 1
    - _GlobalWindInflucene: 1
    - _GlobalWindInfluence: 1
    - _GlossMapScale: 1
    - _Glossiness: 0
    - _GlossinessThreshold: 0
    - _GlossinessVariance: 0
    - _GlossyReflections: 0
    - _Hello: 3
    - _Hue: 0
    - _HueVariationKwToggle: 0
    - _Int2: 0
    - _Leaftype: 0
    - _LightAttenuation: 1
    - _LightIntensity: 1
    - _LightSouce: 0
    - _LocalWindStrength: 0
    - _MaskClipValue: 0.5
    - _Metallic: 0
    - _Mode: 1
    - _NormalMapKwToggle: 0
    - _OcclusionStrength: 1
    - _OutlineThickness1: 0
    - _Parallax: 0.02
    - _Power: 1
    - _ReceivesSSR: 1
    - _RenderQueueType: 1
    - _RequireSplitLighting: 0
    - _SSSPower: 2.5
    - _SSSScale: 2.36
    - _Saturation: 1
    - _Scale: 1
    - _Smoothness: 0
    - _Smoothness1: 0
    - _SmoothnessTextureChannel: 0
    - _SmoothnessThreshold: 0
    - _SmoothnessThreshold1: 0
    - _SmoothnessVariance: 0.5
    - _SmoothnessVariance1: 0.5
    - _Specular: 1
    - _SpecularHighlights: 0
    - _Specularity: 0
    - _SrcBlend: 1
    - _StencilRef: 0
    - _StencilRefDepth: 0
    - _StencilRefDistortionVec: 64
    - _StencilRefGBuffer: 2
    - _StencilRefMV: 128
    - _StencilWriteMask: 3
    - _StencilWriteMaskDepth: 32
    - _StencilWriteMaskDistortionVec: 64
    - _StencilWriteMaskGBuffer: 3
    - _StencilWriteMaskMV: 128
    - _SubsurfaceDistortion: 0.8
    - _SubsurfaceIndirect: 0.25
    - _SubsurfaceKwToggle: 0
    - _SurfaceType: 0
    - _ToonStyle: 0
    - _Translucency: 1.26
    - _TranslucencyIntensity: 1
    - _Transmission: 3
    - _TransparentBackfaceEnable: 0
    - _TransparentCullMode: 2
    - _TransparentSortPriority: 0
    - _TwoSided: 0
    - _UVSec: 0
    - _UseShadowThreshold: 0
    - _Value: 1
    - _WindMode: 1
    - _WindQuality: 0
    - _WindStrength: 0.1
    - _ZTestDepthEqualForOpaque: 4
    - _ZTestGBuffer: 4
    - _ZTestTransparent: 4
    - _ZWrite: 1
    - __dirty: 1
    - _transmission: 3
    m_Colors:
    - _ASEOutlineColor: {r: 0, g: 0, b: 0, a: 0}
    - _Color: {r: 0.91744417, g: 1, b: 0.83823526, a: 1}
    - _ColorVariation: {r: 1, g: 0.7981892, b: 0.6556604, a: 1}
    - _CustomLightColor: {r: 0.6704477, g: 1, b: 0, a: 1}
    - _DoubleSidedConstants: {r: 1, g: 1, b: -1, a: 0}
    - _EmissionColor: {r: 0, g: 0, b: 0, a: 1}
    - _HueVariationColor: {r: 1, g: 0.5, b: 0, a: 0.1}
    - _LightColor: {r: 1, g: 1, b: 1, a: 1}
    - _OutlineColor: {r: 0, g: 0, b: 0, a: 0}
    - _SSSColor: {r: 1, g: 0.89350915, b: 0.7794118, a: 1}
    - _SpecColor: {r: 0.19999996, g: 0.19999996, b: 0.19999996, a: 1}
    - _SubsurfaceColor: {r: 1, g: 1, b: 1, a: 1}
    - _TranslucencyColor: {r: 1, g: 1, b: 1, a: 1}
    - _TranslucentColor: {r: 1, g: 1, b: 1, a: 1}
